${AnsiColor.BRIGHT_BLUE}
::::::::::::::::::::::::::::::::::::::::::::::::::::::::::::::::::::::::
::        ___  ____  ___    ____                            _         ::
::       / _ \| __ )/ _ \  |  _ \ _____      ____ _ _ __ __| |        ::
::      | | | |  _ \ (_) | | |_) / _ \ \ /\ / / _` | '__/ _` |        ::
::      | |_| | |_) \__, | |  _ <  __/\ V  V / (_| | | | (_| |        ::
::       \__\_\____/  /_/  |_| \_\___| \_/\_/ \__,_|_|  \__,_|        ::
::                                                                    ::
::::::::::::::::::::::::::::::::::::::::::::::::::::::::::::::::::::::::
::                                                                    ::
::  QB9Reward Server v0.0.1 :: Running Spring Boot ${spring-boot.version}      ::
::  http://api.mundogaturro.com/reward/                               ::
::                                                                    ::
::::::::::::::::::::::::::::::::::::::::::::::::::::::::::::::::::::::::
${AnsiColor.DEFAULT}
